Trabajo_Practico_Integrador/integrador/simulation/qsim/Registros.msim.vcd
$comment
	File created using the following command:
		vcd file Registros.msim.vcd -direction
$end
$date
	Mon Jul 14 01:26:02 2025
$end
$version
	ModelSim Version 10.1d
$end
$timescale
	1ps
$end
$scope module PruebaPrincipal2_vlg_vec_tst $end
$var reg 1 ! CLK $end
$var reg 1 " CONTINUAR $end
$var reg 12 # treg_DATA [11:0] $end
$var reg 3 $ INC [2:0] $end
$var reg 1 % LOAD_F $end
$var reg 1 & LOAD_I $end
$var reg 1 ' RECARGAR $end
$var reg 1 ( START $end
$var reg 1 ) UD $end
$var wire 1 * DATA [11] $end
$var wire 1 + DATA [10] $end
$var wire 1 , DATA [9] $end
$var wire 1 - DATA [8] $end
$var wire 1 . DATA [7] $end
$var wire 1 / DATA [6] $end
$var wire 1 0 DATA [5] $end
$var wire 1 1 DATA [4] $end
$var wire 1 2 DATA [3] $end
$var wire 1 3 DATA [2] $end
$var wire 1 4 DATA [1] $end
$var wire 1 5 DATA [0] $end
$var wire 1 6 ERROR $end
$var wire 1 7 FIN $end
$var wire 1 8 PAUSA $end
$var wire 1 9 sampler $end
$scope module i1 $end
$var wire 1 : gnd $end
$var wire 1 ; vcc $end
$var wire 1 < unknown $end
$var tri1 1 = devclrn $end
$var tri1 1 > devpor $end
$var tri1 1 ? devoe $end
$var wire 1 @ DATA[11]~output_o $end
$var wire 1 A DATA[10]~output_o $end
$var wire 1 B DATA[9]~output_o $end
$var wire 1 C DATA[8]~output_o $end
$var wire 1 D DATA[7]~output_o $end
$var wire 1 E DATA[6]~output_o $end
$var wire 1 F DATA[5]~output_o $end
$var wire 1 G DATA[4]~output_o $end
$var wire 1 H DATA[3]~output_o $end
$var wire 1 I DATA[2]~output_o $end
$var wire 1 J DATA[1]~output_o $end
$var wire 1 K DATA[0]~output_o $end
$var wire 1 L PAUSA~output_o $end
$var wire 1 M FIN~output_o $end
$var wire 1 N ERROR~output_o $end
$var wire 1 O CLK~input_o $end
$var wire 1 P CLK~inputclkctrl_outclk $end
$var wire 1 Q START~input_o $end
$var wire 1 R DATA[10]~input_o $end
$var wire 1 S DATA[5]~input_o $end
$var wire 1 T DATA[7]~input_o $end
$var wire 1 U UD~input_o $end
$var wire 1 V DATA[6]~input_o $end
$var wire 1 W inst18|inst|inst43|inst25~2_combout $end
$var wire 1 X inst18|inst|inst43|inst25~1_combout $end
$var wire 1 Y DATA[4]~input_o $end
$var wire 1 Z DATA[3]~input_o $end
$var wire 1 [ INC[1]~input_o $end
$var wire 1 \ DATA[1]~input_o $end
$var wire 1 ] inst18|inst|inst|inst1~combout $end
$var wire 1 ^ INC[0]~input_o $end
$var wire 1 _ inst18|inst|inst|inst25~0_combout $end
$var wire 1 ` INC[2]~input_o $end
$var wire 1 a DATA[2]~input_o $end
$var wire 1 b inst18|inst|inst|inst6~combout $end
$var wire 1 c DATA[0]~input_o $end
$var wire 1 d inst18|inst|inst|inst21~0_combout $end
$var wire 1 e inst18|inst|inst|inst25~1_combout $end
$var wire 1 f inst18|inst|inst|inst5~combout $end
$var wire 1 g inst18|inst|inst|inst29~0_combout $end
$var wire 1 h inst18|inst|inst|inst29~1_combout $end
$var wire 1 i inst18|inst|inst|inst25~2_combout $end
$var wire 1 j inst18|inst|inst43|inst25~0_combout $end
$var wire 1 k DATA[8]~input_o $end
$var wire 1 l inst22|inst6~5_combout $end
$var wire 1 m inst18|inst|inst44|inst20~0_combout $end
$var wire 1 n inst16~6_combout $end
$var wire 1 o DATA[9]~input_o $end
$var wire 1 p inst16~2_combout $end
$var wire 1 q DATA[11]~input_o $end
$var wire 1 r inst18|inst|inst44|inst25~2_combout $end
$var wire 1 s inst16~3_combout $end
$var wire 1 t RECARGAR~input_o $end
$var wire 1 u LOAD_F~input_o $end
$var wire 1 v inst3~combout $end
$var wire 1 w REG_FINAL|B11|BIT~q $end
$var wire 1 x inst22|inst5~0_combout $end
$var wire 1 y REG_FINAL|B10|BIT~q $end
$var wire 1 z REG_FINAL|B9|BIT~q $end
$var wire 1 { inst22|inst6~0_combout $end
$var wire 1 | inst22|inst5~1_combout $end
$var wire 1 } inst21~2_combout $end
$var wire 1 ~ inst21~3_combout $end
$var wire 1 !! inst22|inst6~2_combout $end
$var wire 1 "! REG_FINAL|B8|BIT~q $end
$var wire 1 #! inst22|inst6~1_combout $end
$var wire 1 $! inst21~0_combout $end
$var wire 1 %! inst22|inst6~3_combout $end
$var wire 1 &! inst21~1_combout $end
$var wire 1 '! inst22|inst6~4_combout $end
$var wire 1 (! REG_FINAL|B7|BIT~q $end
$var wire 1 )! REG_FINAL|B5|BIT~q $end
$var wire 1 *! REG_FINAL|B4|BIT~q $end
$var wire 1 +! REG_FINAL|B2|BIT~q $end
$var wire 1 ,! REG_FINAL|B0|BIT~q $end
$var wire 1 -! REG_FINAL|B1|BIT~q $end
$var wire 1 .! inst20|inst6|inst9~0_combout $end
$var wire 1 /! inst20|inst6|inst9~1_combout $end
$var wire 1 0! REG_FINAL|B3|BIT~q $end
$var wire 1 1! inst20|inst6|inst9~2_combout $end
$var wire 1 2! inst20|inst6|inst9~3_combout $end
$var wire 1 3! inst20|inst6|inst9~4_combout $end
$var wire 1 4! REG_FINAL|B6|BIT~q $end
$var wire 1 5! inst20|inst6|inst9~5_combout $end
$var wire 1 6! inst20|inst6|inst9~6_combout $end
$var wire 1 7! inst20|inst6|inst10~0_combout $end
$var wire 1 8! inst20|inst6|inst10~1_combout $end
$var wire 1 9! inst20|inst6|inst10~2_combout $end
$var wire 1 :! inst20|inst6|inst10~3_combout $end
$var wire 1 ;! inst20|inst6|inst10~4_combout $end
$var wire 1 <! inst20|inst6|inst10~5_combout $end
$var wire 1 =! inst20|inst6|inst10~6_combout $end
$var wire 1 >! inst21~4_combout $end
$var wire 1 ?! inst16~4_combout $end
$var wire 1 @! inst16~5_combout $end
$var wire 1 A! CONTINUAR~input_o $end
$var wire 1 B! LOAD_I~input_o $end
$var wire 1 C! inst22|inst1~combout $end
$var wire 1 D! inst22|inst~q $end
$var wire 1 E! inst21~5_combout $end
$var wire 1 F! REG_INICIAL|B11|TRI~0_combout $end
$var wire 1 G! inst18|inst|inst44|inst21~0_combout $end
$var wire 1 H! inst18|inst|inst44|inst14~combout $end
$var wire 1 I! inst~combout $end
$var wire 1 J! REG_INICIAL|B11|BIT~q $end
$var wire 1 K! inst30~combout $end
$var wire 1 L! REG_INICIAL|B11|TRI~1_combout $end
$var wire 1 M! REG_INICIAL|B11|TRI~2_combout $end
$var wire 1 N! inst31~0_combout $end
$var wire 1 O! REG_A|B11|BIT~q $end
$var wire 1 P! inst18|inst|inst44|inst18~combout $end
$var wire 1 Q! inst18|inst|inst44|inst12~combout $end
$var wire 1 R! REG_INICIAL|B10|BIT~q $end
$var wire 1 S! REG_INICIAL|B10|TRI~0_combout $end
$var wire 1 T! REG_INICIAL|B10|TRI~1_combout $end
$var wire 1 U! REG_A|B10|BIT~q $end
$var wire 1 V! inst18|inst|inst44|inst10~combout $end
$var wire 1 W! REG_INICIAL|B9|BIT~q $end
$var wire 1 X! REG_INICIAL|B9|TRI~0_combout $end
$var wire 1 Y! REG_INICIAL|B9|TRI~1_combout $end
$var wire 1 Z! REG_A|B9|BIT~q $end
$var wire 1 [! inst18|inst|inst44|inst8~0_combout $end
$var wire 1 \! inst18|inst|inst44|inst8~combout $end
$var wire 1 ]! REG_INICIAL|B8|BIT~q $end
$var wire 1 ^! REG_INICIAL|B8|TRI~0_combout $end
$var wire 1 _! REG_INICIAL|B8|TRI~1_combout $end
$var wire 1 `! REG_A|B8|BIT~q $end
$var wire 1 a! inst18|inst|inst43|inst21~0_combout $end
$var wire 1 b! inst18|inst|inst43|inst14~combout $end
$var wire 1 c! REG_INICIAL|B7|BIT~q $end
$var wire 1 d! REG_INICIAL|B7|TRI~0_combout $end
$var wire 1 e! REG_INICIAL|B7|TRI~1_combout $end
$var wire 1 f! REG_A|B7|BIT~q $end
$var wire 1 g! inst18|inst|inst43|inst18~combout $end
$var wire 1 h! inst18|inst|inst43|inst12~combout $end
$var wire 1 i! REG_INICIAL|B6|BIT~q $end
$var wire 1 j! REG_INICIAL|B6|TRI~0_combout $end
$var wire 1 k! REG_INICIAL|B6|TRI~1_combout $end
$var wire 1 l! REG_A|B6|BIT~q $end
$var wire 1 m! inst18|inst|inst43|inst10~combout $end
$var wire 1 n! REG_INICIAL|B5|BIT~q $end
$var wire 1 o! REG_INICIAL|B5|TRI~0_combout $end
$var wire 1 p! REG_INICIAL|B5|TRI~1_combout $end
$var wire 1 q! REG_A|B5|BIT~q $end
$var wire 1 r! inst18|inst|inst43|inst8~combout $end
$var wire 1 s! REG_INICIAL|B4|BIT~q $end
$var wire 1 t! REG_INICIAL|B4|TRI~0_combout $end
$var wire 1 u! REG_INICIAL|B4|TRI~1_combout $end
$var wire 1 v! REG_A|B4|BIT~q $end
$var wire 1 w! inst18|inst|inst|inst21~1_combout $end
$var wire 1 x! inst18|inst|inst|inst14~combout $end
$var wire 1 y! REG_INICIAL|B3|BIT~q $end
$var wire 1 z! REG_INICIAL|B3|TRI~0_combout $end
$var wire 1 {! REG_INICIAL|B3|TRI~1_combout $end
$var wire 1 |! REG_A|B3|BIT~q $end
$var wire 1 }! inst18|inst|inst|inst12~0_combout $end
$var wire 1 ~! inst18|inst|inst|inst16~0_combout $end
$var wire 1 !" inst18|inst|inst|inst12~combout $end
$var wire 1 "" REG_INICIAL|B2|BIT~q $end
$var wire 1 #" REG_INICIAL|B2|TRI~0_combout $end
$var wire 1 $" REG_INICIAL|B2|TRI~1_combout $end
$var wire 1 %" REG_A|B2|BIT~q $end
$var wire 1 &" inst18|inst|inst|inst10~combout $end
$var wire 1 '" REG_INICIAL|B1|BIT~q $end
$var wire 1 (" REG_INICIAL|B1|TRI~0_combout $end
$var wire 1 )" REG_INICIAL|B1|TRI~1_combout $end
$var wire 1 *" REG_A|B1|BIT~q $end
$var wire 1 +" inst18|inst|inst|inst8~0_combout $end
$var wire 1 ," REG_INICIAL|B0|BIT~q $end
$var wire 1 -" REG_INICIAL|B0|TRI~0_combout $end
$var wire 1 ." REG_INICIAL|B0|TRI~1_combout $end
$var wire 1 /" REG_A|B0|BIT~q $end
$var wire 1 0" inst10|inst4~0_combout $end
$upscope $end
$upscope $end
$enddefinitions $end
#0
$dumpvars
0!
0"
b1010 #
b111 $
0%
0&
1'
0(
0)
05
14
03
12
01
00
0/
0.
0-
0,
0+
0*
06
17
08
x9
0:
1;
x<
1=
1>
1?
z@
zA
zB
zC
zD
zE
zF
zG
zH
zI
zJ
zK
0L
1M
0N
0O
0P
0Q
0R
0S
0T
0U
0V
0W
0X
0Y
1Z
1[
1\
1]
1^
1_
1`
0a
1b
0c
1d
1e
1f
1g
0h
1i
0j
0k
1l
0m
1n
0o
1p
0q
0r
1s
1t
0u
0v
0w
0x
0y
0z
1{
0|
1}
1~
1!!
0"!
1#!
1$!
0%!
1&!
1'!
0(!
0)!
0*!
0+!
0,!
0-!
0.!
0/!
00!
01!
02!
03!
04!
05!
06!
17!
18!
19!
1:!
1;!
1<!
1=!
1>!
0?!
0@!
0A!
0B!
0C!
0D!
0E!
1F!
0G!
0H!
0I!
0J!
1K!
0L!
0M!
0N!
0O!
0P!
0Q!
0R!
0S!
0T!
0U!
0V!
0W!
0X!
0Y!
0Z!
0[!
0\!
0]!
0^!
0_!
0`!
0a!
0b!
0c!
0d!
0e!
0f!
0g!
0h!
0i!
0j!
0k!
0l!
0m!
0n!
0o!
0p!
0q!
1r!
0s!
0t!
0u!
0v!
0w!
0x!
0y!
0z!
0{!
0|!
1}!
0~!
0!"
0""
0#"
0$"
0%"
0&"
0'"
0("
0)"
0*"
1+"
0,"
0-"
0."
0/"
00"
$end
#5000
1!
1O
1P
09
#10000
1&
0!
1B!
0O
0P
19
1N!
0K!
1I!
1("
1z!
1)"
1{!
#15000
1!
1O
1P
09
1'"
1y!
1*"
1|!
#20000
0&
0!
0B!
0O
0P
19
1-"
1#"
1t!
1o!
1j!
1d!
1^!
1X!
1S!
0N!
1L!
1K!
0I!
1."
1$"
1u!
1p!
1k!
1e!
1_!
1Y!
1T!
1M!
0-"
0#"
0t!
0o!
0j!
0d!
0^!
0X!
0S!
0L!
0."
0$"
0u!
0p!
0k!
0e!
0_!
0Y!
0T!
0M!
#25000
1!
1O
1P
09
#30000
b10001010 #
b11001010 #
b11001000 #
0!
04
1/
1.
0\
1V
1T
0O
0P
19
07!
0]
1h!
1b!
08!
1&"
1!"
0d
1x!
0e
0i
0r!
#35000
1!
1O
1P
09
#40000
1%
0!
1u
0O
0P
19
1v
#45000
1!
1O
1P
09
14!
10!
1(!
09!
0:!
0;!
0<!
0=!
#50000
0%
0!
0u
0O
0P
19
0v
#55000
1!
1O
1P
09
#60000
bz00011001000 #
bz0011001000 #
bz011001000 #
bz11001000 #
bz11z01000 #
bz11zz1000 #
bz11zzz000 #
bz11zzzz00 #
bz11zzzz0z #
0'
bz1zzzz0z #
bz0z #
bz #
0!
z5
z4
z3
z2
z1
z0
z/
z.
z-
z,
z+
z*
zc
z\
za
zZ
zY
zS
zV
zT
zk
zo
zR
zq
0t
0O
0P
19
x+"
x~!
x7!
xd
x]
x}!
xw!
x8!
xe
xx!
x1!
xr!
xm!
x:!
x;!
xX
xh!
x5!
xb!
x6!
x[!
xV!
x'!
xl
x#!
xQ!
x!!
x{
xH!
0K!
0F!
1."
x&"
x!"
x9!
xi
x2!
1u!
1p!
x<!
x\!
1k!
1e!
x>!
1Y!
1T!
1M!
1-"
1#"
1t!
1o!
1j!
1d!
1^!
1X!
1S!
1L!
1$"
1_!
xg!
xj
x3!
x=!
x?!
xC!
xa!
xm
xN!
xN
x6
xP!
xr
xn
xG!
xp
xs
#65000
1!
1O
1P
09
#70000
1(
0!
0O
0P
19
1Q
x@!
0K
1J
0I
1H
0G
0F
0E
0D
0C
0B
0A
0@
05
14
03
12
01
00
0/
0.
0-
0,
0+
0*
x."
x)"
x$"
x{!
xu!
xp!
xk!
xe!
x_!
xY!
xT!
xM!
0c
1\
0a
1Z
0Y
0S
0V
0T
0k
0o
0R
0q
1+"
0~!
17!
1]
1}!
0w!
01!
0m!
0g!
0j
0a!
0X
0<!
15!
0=!
16!
0[!
0P!
1n
1l
0G!
1p
1!!
1{
1."
0&"
0!"
18!
1d
02!
0h!
0\!
0m
0b!
0Q!
0H!
1s
1#!
19!
0x!
1e
03!
0V!
0r
1'!
1:!
1i
0>!
1;!
1r!
1?!
1C!
1u!
1N!
1@!
1N
16
0)"
0$"
0{!
0p!
0k!
0e!
0_!
0Y!
0T!
0M!
#75000
1!
1O
1P
09
1D!
1/"
0*"
0|!
1v!
1K
0J
0H
1G
15
04
02
11
1c
0\
0Z
1Y
0+"
1~!
0]
1x!
09!
11!
0i
0r!
1m!
1j
0."
1{!
1r!
0m!
0j
0u!
1p!
1u!
0p!
#80000
0!
0O
0P
19
#85000
1!
1O
1P
09
0/"
1|!
0K
1H
05
12
0c
1Z
1+"
0~!
07!
0d
0x!
19!
01!
1i
1."
1&"
1!"
08!
1x!
0e
0{!
0r!
1m!
1j
1)"
1$"
09!
1{!
0i
0u!
1p!
1r!
0m!
0j
1u!
0p!
#90000
0!
0O
0P
19
#95000
1!
1O
1P
09
1/"
1*"
1%"
1K
1J
1I
15
14
13
1c
1\
1a
0+"
1~!
17!
1d
1]
0}!
1w!
18!
1e
0."
0x!
19!
1i
0{!
0r!
1m!
1j
0u!
1p!
#100000
0!
0O
0P
19
#105000
1!
1O
1P
09
0/"
0|!
0v!
1q!
0K
0H
0G
1F
05
02
01
10
0c
0Z
0Y
1S
1+"
0~!
1x!
09!
11!
0i
1r!
0j
1."
0&"
1{!
0:!
12!
0r!
1u!
0)"
0u!
#110000
0!
0O
0P
19
#115000
1!
1O
1P
09
1/"
0*"
1|!
1K
0J
1H
15
04
12
1c
0\
1Z
0+"
1~!
0]
0x!
19!
01!
1i
0."
0{!
1:!
02!
1r!
1u!
#120000
0!
0O
0P
19
#125000
1!
1O
1P
09
0/"
0|!
1v!
0K
0H
1G
05
02
11
0c
0Z
1Y
1+"
0~!
07!
0d
1x!
09!
11!
0i
0r!
0m!
1g!
1j
1."
1&"
0!"
1{!
1r!
1m!
0g!
0j
0u!
0p!
1h!
1)"
0$"
1u!
1p!
0h!
1k!
0k!
#130000
0!
0O
0P
19
#135000
1!
1O
1P
09
1/"
1*"
0%"
1|!
1K
1J
0I
1H
15
14
03
12
1c
1\
0a
1Z
0+"
1~!
17!
1d
1]
1}!
0w!
08!
0e
0x!
19!
01!
1i
0."
18!
1e
09!
0i
0{!
0r!
0m!
1g!
1j
19!
1i
1r!
1m!
0g!
0j
0u!
0p!
1h!
0r!
0m!
1g!
1j
1u!
1p!
0h!
1k!
0u!
0p!
1h!
0k!
1k!
#140000
0!
0O
0P
19
#145000
1!
1O
1P
09
0/"
0|!
0v!
0q!
1l!
0K
0H
0G
0F
1E
05
02
01
00
1/
0c
0Z
0Y
0S
1V
1+"
0~!
1x!
09!
11!
0i
1r!
0g!
0j
0h!
1<!
05!
1."
0&"
1{!
0:!
12!
0r!
1u!
1h!
0k!
0)"
0;!
13!
0u!
1k!
0<!
15!
#150000
0!
0O
0P
19
#155000
1!
1O
1P
09
1/"
0*"
1|!
1K
0J
1H
15
04
12
1c
0\
1Z
0+"
1~!
0]
0x!
19!
01!
1i
0."
0{!
1:!
02!
1r!
1;!
03!
1u!
1<!
05!
#160000
0!
0O
0P
19
#165000
1!
1O
1P
09
0/"
0|!
1v!
0K
0H
1G
05
02
11
0c
0Z
1Y
1+"
0~!
07!
0d
1x!
09!
11!
0i
0r!
1m!
1j
1."
1&"
1!"
08!
0x!
0e
1{!
1r!
0m!
0j
0u!
1p!
1)"
1$"
0{!
1u!
0p!
#170000
0!
0O
0P
19
#175000
1!
1O
1P
09
1/"
1*"
1%"
1K
1J
1I
15
14
13
1c
1\
1a
0+"
1~!
17!
1d
1]
0}!
1w!
18!
1e
0."
1x!
1{!
#180000
0!
0O
0P
19
#185000
1!
1O
1P
09
0/"
1|!
0K
1H
05
12
0c
1Z
1+"
0~!
0x!
19!
01!
1i
1."
0&"
0{!
0r!
1m!
1j
0)"
0u!
1p!
#190000
0!
0O
0P
19
#195000
1!
1O
1P
09
1/"
0*"
0|!
0v!
1q!
1K
0J
0H
0G
1F
15
04
02
01
10
1c
0\
0Z
0Y
1S
0+"
1~!
0]
1x!
09!
11!
0i
1r!
0j
1a!
0."
1{!
0:!
12!
0r!
1u!
0a!
1b!
0u!
0b!
1e!
0e!
#200000
0!
0O
0P
19
#205000
1!
1O
1P
09
0/"
1|!
0K
1H
05
12
0c
1Z
1+"
0~!
07!
0d
0x!
19!
01!
1i
1."
1&"
0!"
0{!
1:!
02!
1r!
1)"
0$"
1u!
#210000
0!
0O
0P
19
#215000
1!
1O
1P
09
1/"
1*"
0%"
0|!
1v!
1K
1J
0I
0H
1G
15
14
03
02
11
1c
1\
0a
0Z
1Y
0+"
1~!
17!
1d
1]
1}!
0w!
08!
0e
1x!
09!
11!
0i
0r!
0m!
1g!
1j
0."
18!
1e
1{!
1r!
1m!
0g!
0j
0u!
0p!
0h!
1a!
1u!
1p!
1h!
0a!
0k!
1b!
1k!
0b!
1e!
0e!
#220000
0!
0O
0P
19
#225000
1!
1O
1P
09
0/"
1|!
0K
1H
05
12
0c
1Z
1+"
0~!
0x!
19!
01!
1i
1."
0&"
0{!
0r!
0m!
1g!
1j
0)"
0u!
0p!
0h!
1a!
0k!
1b!
1e!
#230000
0!
0O
0P
19
#235000
1!
1O
1P
09
1/"
0*"
0|!
0v!
0q!
0l!
1f!
1K
0J
0H
0G
0F
0E
1D
15
04
02
01
00
0/
1.
1c
0\
0Z
0Y
0S
0V
1T
0+"
1~!
0]
1x!
09!
11!
0i
1r!
0g!
0j
0a!
1h!
0<!
15!
0b!
1=!
06!
0."
1{!
0:!
12!
0r!
1u!
0h!
1b!
1k!
0=!
16!
0e!
1>!
0;!
13!
0u!
0k!
1e!
0>!
1E!
0?!
0E!
1?!
0N!
0@!
0M
07
1N!
1@!
1."
1)"
1$"
1u!
1p!
1k!
1_!
1Y!
1T!
1M!
1M
17
0."
0)"
0$"
0u!
0p!
0k!
0_!
0Y!
0T!
0M!
#240000
0!
0O
0P
19
#245000
1!
1O
1P
09
0/"
1|!
0K
1H
05
12
0c
1Z
1+"
0~!
07!
0d
0x!
19!
01!
1i
1."
1&"
1!"
08!
1x!
0e
0{!
1:!
02!
1r!
1)"
1$"
09!
1{!
0i
1;!
03!
1u!
0:!
0r!
0;!
0u!
#250000
0!
0O
0P
19
#255000
1!
1O
1P
09
1/"
1*"
1%"
1K
1J
1I
15
14
13
1c
1\
1a
0+"
1~!
17!
1d
1]
0}!
1w!
18!
1e
0."
0x!
19!
1i
0{!
1:!
1r!
1;!
1u!
#260000
0!
0O
0P
19
#265000
1!
1O
1P
09
0/"
0|!
1v!
0K
0H
1G
05
02
11
0c
0Z
1Y
1+"
0~!
1x!
09!
11!
0i
0r!
1m!
1j
1."
0&"
1{!
1r!
0m!
0j
0u!
1p!
0)"
1u!
0p!
#270000
0!
0O
0P
19
#275000
1!
1O
1P
09
1/"
0*"
1|!
1K
0J
1H
15
04
12
1c
0\
1Z
0+"
1~!
0]
0x!
19!
01!
1i
0."
0{!
0r!
1m!
1j
0u!
1p!
#280000
0!
0O
0P
19
#285000
1!
1O
1P
09
0/"
0|!
0v!
1q!
0K
0H
0G
1F
05
02
01
10
0c
0Z
0Y
1S
1+"
0~!
07!
0d
1x!
09!
11!
0i
1r!
0j
1."
1&"
0!"
1{!
0:!
12!
0r!
1u!
1)"
0$"
0u!
#290000
0!
0O
0P
19
#295000
1!
1O
1P
09
1/"
1*"
0%"
1|!
1K
1J
0I
1H
15
14
03
12
1c
1\
0a
1Z
0+"
1~!
17!
1d
1]
1}!
0w!
08!
0e
0x!
19!
01!
1i
0."
18!
1e
09!
0i
0{!
1:!
02!
1r!
19!
1i
0:!
0r!
1u!
1:!
1r!
0u!
1u!
#300000
0!
0O
0P
19
#305000
1!
1O
1P
09
0/"
0|!
1v!
0K
0H
1G
05
02
11
0c
0Z
1Y
1+"
0~!
1x!
09!
11!
0i
0r!
0m!
1g!
1j
1."
0&"
1{!
1r!
1m!
0g!
0j
0u!
0p!
1h!
0)"
1u!
1p!
0h!
1k!
0k!
#310000
0!
0O
0P
19
#315000
1!
1O
1P
09
1/"
0*"
1|!
1K
0J
1H
15
04
12
1c
0\
1Z
0+"
1~!
0]
0x!
19!
01!
1i
0."
0{!
0r!
0m!
1g!
1j
0u!
0p!
1h!
1k!
#320000
0!
0O
0P
19
#325000
1!
1O
1P
09
0/"
0|!
0v!
0q!
1l!
0K
0H
0G
0F
1E
05
02
01
00
1/
0c
0Z
0Y
0S
1V
1+"
0~!
07!
0d
1x!
09!
11!
0i
1r!
0g!
0j
0h!
1<!
05!
1."
1&"
1!"
08!
0x!
0e
1{!
0:!
12!
0r!
1u!
1h!
0k!
1=!
06!
1)"
1$"
0{!
0;!
13!
0u!
1k!
1>!
0<!
15!
1E!
0?!
0=!
16!
0N!
0@!
0M
07
0>!
1{!
1u!
1p!
1_!
1Y!
1T!
1M!
0E!
1?!
1N!
1@!
1M
17
0{!
0u!
0p!
0_!
0Y!
0T!
0M!
#330000
0!
0O
0P
19
#335000
1!
1O
1P
09
1/"
1*"
1%"
1K
1J
1I
15
14
13
1c
1\
1a
0+"
1~!
17!
1d
1]
0}!
1w!
18!
1e
0."
1x!
1{!
#340000
0!
0O
0P
19
#345000
1!
1O
1P
09
0/"
1|!
0K
1H
05
12
0c
1Z
1+"
0~!
0x!
19!
01!
1i
1."
0&"
0{!
1:!
02!
1r!
0)"
1;!
03!
1u!
1<!
05!
1=!
06!
1>!
1E!
0?!
0N!
0@!
0M
07
1)"
1{!
1p!
1_!
1Y!
1T!
1M!
#350000
0!
0O
0P
19
#355000
1!
1O
1P
09
#360000
0!
0O
0P
19
#365000
1!
1O
1P
09
#370000
0!
0O
0P
19
#375000
1!
1O
1P
09
#380000
0!
0O
0P
19
#385000
1!
1O
1P
09
#390000
0!
0O
0P
19
#395000
1!
1O
1P
09
#400000
0!
0O
0P
19
#405000
1!
1O
1P
09
#410000
0!
0O
0P
19
#415000
1!
1O
1P
09
#420000
0!
0O
0P
19
#425000
1!
1O
1P
09
#430000
0!
0O
0P
19
#435000
1!
1O
1P
09
#440000
0!
0O
0P
19
#445000
1!
1O
1P
09
#450000
0!
0O
0P
19
#455000
1!
1O
1P
09
#460000
0!
0O
0P
19
#465000
1!
1O
1P
09
#470000
0!
0O
0P
19
#475000
1!
1O
1P
09
#480000
0!
0O
0P
19
#485000
1!
1O
1P
09
#490000
0!
0O
0P
19
#495000
1!
1O
1P
09
#500000
0!
0O
0P
19
#505000
1!
1O
1P
09
#510000
0!
0O
0P
19
#515000
1!
1O
1P
09
#520000
0!
0O
0P
19
#525000
1!
1O
1P
09
#530000
0!
0O
0P
19
#535000
1!
1O
1P
09
#540000
0!
0O
0P
19
#545000
1!
1O
1P
09
#550000
0!
0O
0P
19
#555000
1!
1O
1P
09
#560000
0!
0O
0P
19
#565000
1!
1O
1P
09
#570000
0!
0O
0P
19
#575000
1!
1O
1P
09
#580000
0!
0O
0P
19
#585000
1!
1O
1P
09
#590000
0!
0O
0P
19
#595000
1!
1O
1P
09
#600000
0!
0O
0P
19
#605000
1!
1O
1P
09
#610000
0!
0O
0P
19
#615000
1!
1O
1P
09
#620000
0!
0O
0P
19
#625000
1!
1O
1P
09
#630000
0!
0O
0P
19
#635000
1!
1O
1P
09
#640000
0!
0O
0P
19
#645000
1!
1O
1P
09
#650000
0!
0O
0P
19
#655000
1!
1O
1P
09
#660000
0!
0O
0P
19
#665000
1!
1O
1P
09
#670000
0!
0O
0P
19
#675000
1!
1O
1P
09
#680000
0!
0O
0P
19
#685000
1!
1O
1P
09
#690000
0!
0O
0P
19
#695000
1!
1O
1P
09
#700000
0!
0O
0P
19
#705000
1!
1O
1P
09
#710000
0!
0O
0P
19
#715000
1!
1O
1P
09
#720000
0!
0O
0P
19
#725000
1!
1O
1P
09
#730000
0!
0O
0P
19
#735000
1!
1O
1P
09
#740000
0!
0O
0P
19
#745000
1!
1O
1P
09
#750000
0!
0O
0P
19
#755000
1!
1O
1P
09
#760000
0!
0O
0P
19
#765000
1!
1O
1P
09
#770000
0!
0O
0P
19
#775000
1!
1O
1P
09
#780000
0!
0O
0P
19
#785000
1!
1O
1P
09
#790000
0!
0O
0P
19
#795000
1!
1O
1P
09
#800000
0!
0O
0P
19
#805000
1!
1O
1P
09
#810000
0!
0O
0P
19
#815000
1!
1O
1P
09
#820000
0!
0O
0P
19
#825000
1!
1O
1P
09
#830000
0!
0O
0P
19
#835000
1!
1O
1P
09
#840000
0!
0O
0P
19
#845000
1!
1O
1P
09
#850000
0!
0O
0P
19
#855000
1!
1O
1P
09
#860000
0!
0O
0P
19
#865000
1!
1O
1P
09
#870000
0!
0O
0P
19
#875000
1!
1O
1P
09
#880000
0!
0O
0P
19
#885000
1!
1O
1P
09
#890000
0!
0O
0P
19
#895000
1!
1O
1P
09
#900000
0!
0O
0P
19
#905000
1!
1O
1P
09
#910000
0!
0O
0P
19
#915000
1!
1O
1P
09
#920000
0!
0O
0P
19
#925000
1!
1O
1P
09
#930000
0!
0O
0P
19
#935000
1!
1O
1P
09
#940000
0!
0O
0P
19
#945000
1!
1O
1P
09
#950000
0!
0O
0P
19
#955000
1!
1O
1P
09
#960000
0!
0O
0P
19
#965000
1!
1O
1P
09
#970000
0!
0O
0P
19
#975000
1!
1O
1P
09
#980000
0!
0O
0P
19
#985000
1!
1O
1P
09
#990000
0!
0O
0P
19
#995000
1!
1O
1P
09
