Trabajo_Integrador/TEI_Grupo05_QUARTUS/simulation/qsim/Registros.msim.vcd
$comment
	File created using the following command:
		vcd file Registros.msim.vcd -direction
$end
$date
	Mon Jul 14 02:04:14 2025
$end
$version
	ModelSim Version 10.1d
$end
$timescale
	1ps
$end
$scope module PruebaPrincipal2_vlg_vec_tst $end
$var reg 1 ! CLK $end
$var reg 1 " CONTINUAR $end
$var reg 12 # treg_DATA [11:0] $end
$var reg 3 $ INC [2:0] $end
$var reg 1 % LOAD_F $end
$var reg 1 & LOAD_I $end
$var reg 1 ' RECARGAR $end
$var reg 1 ( START $end
$var reg 1 ) UD $end
$var wire 1 * DATA [11] $end
$var wire 1 + DATA [10] $end
$var wire 1 , DATA [9] $end
$var wire 1 - DATA [8] $end
$var wire 1 . DATA [7] $end
$var wire 1 / DATA [6] $end
$var wire 1 0 DATA [5] $end
$var wire 1 1 DATA [4] $end
$var wire 1 2 DATA [3] $end
$var wire 1 3 DATA [2] $end
$var wire 1 4 DATA [1] $end
$var wire 1 5 DATA [0] $end
$var wire 1 6 ERROR $end
$var wire 1 7 FIN $end
$var wire 1 8 PAUSA $end
$var wire 1 9 sampler $end
$scope module i1 $end
$var wire 1 : gnd $end
$var wire 1 ; vcc $end
$var wire 1 < unknown $end
$var tri1 1 = devclrn $end
$var tri1 1 > devpor $end
$var tri1 1 ? devoe $end
$var wire 1 @ DATA[11]~output_o $end
$var wire 1 A DATA[10]~output_o $end
$var wire 1 B DATA[9]~output_o $end
$var wire 1 C DATA[8]~output_o $end
$var wire 1 D DATA[7]~output_o $end
$var wire 1 E DATA[6]~output_o $end
$var wire 1 F DATA[5]~output_o $end
$var wire 1 G DATA[4]~output_o $end
$var wire 1 H DATA[3]~output_o $end
$var wire 1 I DATA[2]~output_o $end
$var wire 1 J DATA[1]~output_o $end
$var wire 1 K DATA[0]~output_o $end
$var wire 1 L PAUSA~output_o $end
$var wire 1 M FIN~output_o $end
$var wire 1 N ERROR~output_o $end
$var wire 1 O CLK~input_o $end
$var wire 1 P CLK~inputclkctrl_outclk $end
$var wire 1 Q START~input_o $end
$var wire 1 R DATA[10]~input_o $end
$var wire 1 S DATA[5]~input_o $end
$var wire 1 T DATA[7]~input_o $end
$var wire 1 U UD~input_o $end
$var wire 1 V DATA[6]~input_o $end
$var wire 1 W inst18|inst|inst43|inst25~2_combout $end
$var wire 1 X inst18|inst|inst43|inst25~1_combout $end
$var wire 1 Y DATA[4]~input_o $end
$var wire 1 Z DATA[3]~input_o $end
$var wire 1 [ INC[1]~input_o $end
$var wire 1 \ DATA[1]~input_o $end
$var wire 1 ] inst18|inst|inst|inst1~combout $end
$var wire 1 ^ INC[0]~input_o $end
$var wire 1 _ inst18|inst|inst|inst25~0_combout $end
$var wire 1 ` INC[2]~input_o $end
$var wire 1 a DATA[2]~input_o $end
$var wire 1 b inst18|inst|inst|inst6~combout $end
$var wire 1 c DATA[0]~input_o $end
$var wire 1 d inst18|inst|inst|inst21~0_combout $end
$var wire 1 e inst18|inst|inst|inst25~1_combout $end
$var wire 1 f inst18|inst|inst|inst5~combout $end
$var wire 1 g inst18|inst|inst|inst29~0_combout $end
$var wire 1 h inst18|inst|inst|inst29~1_combout $end
$var wire 1 i inst18|inst|inst|inst25~2_combout $end
$var wire 1 j inst18|inst|inst43|inst25~0_combout $end
$var wire 1 k DATA[8]~input_o $end
$var wire 1 l inst22|inst6~5_combout $end
$var wire 1 m inst18|inst|inst44|inst20~0_combout $end
$var wire 1 n inst16~6_combout $end
$var wire 1 o DATA[9]~input_o $end
$var wire 1 p inst16~2_combout $end
$var wire 1 q DATA[11]~input_o $end
$var wire 1 r inst18|inst|inst44|inst25~2_combout $end
$var wire 1 s inst16~3_combout $end
$var wire 1 t RECARGAR~input_o $end
$var wire 1 u LOAD_F~input_o $end
$var wire 1 v inst3~combout $end
$var wire 1 w REG_FINAL|B11|BIT~q $end
$var wire 1 x inst22|inst5~0_combout $end
$var wire 1 y REG_FINAL|B10|BIT~q $end
$var wire 1 z REG_FINAL|B9|BIT~q $end
$var wire 1 { inst22|inst6~0_combout $end
$var wire 1 | inst22|inst5~1_combout $end
$var wire 1 } inst21~2_combout $end
$var wire 1 ~ inst21~3_combout $end
$var wire 1 !! inst22|inst6~2_combout $end
$var wire 1 "! REG_FINAL|B8|BIT~q $end
$var wire 1 #! inst22|inst6~1_combout $end
$var wire 1 $! inst21~0_combout $end
$var wire 1 %! inst22|inst6~3_combout $end
$var wire 1 &! inst21~1_combout $end
$var wire 1 '! inst22|inst6~4_combout $end
$var wire 1 (! REG_FINAL|B7|BIT~q $end
$var wire 1 )! REG_FINAL|B5|BIT~q $end
$var wire 1 *! REG_FINAL|B4|BIT~q $end
$var wire 1 +! REG_FINAL|B2|BIT~q $end
$var wire 1 ,! REG_FINAL|B0|BIT~q $end
$var wire 1 -! REG_FINAL|B1|BIT~q $end
$var wire 1 .! inst20|inst6|inst9~0_combout $end
$var wire 1 /! inst20|inst6|inst9~1_combout $end
$var wire 1 0! REG_FINAL|B3|BIT~q $end
$var wire 1 1! inst20|inst6|inst9~2_combout $end
$var wire 1 2! inst20|inst6|inst9~3_combout $end
$var wire 1 3! inst20|inst6|inst9~4_combout $end
$var wire 1 4! REG_FINAL|B6|BIT~q $end
$var wire 1 5! inst20|inst6|inst9~5_combout $end
$var wire 1 6! inst20|inst6|inst9~6_combout $end
$var wire 1 7! inst20|inst6|inst10~0_combout $end
$var wire 1 8! inst20|inst6|inst10~1_combout $end
$var wire 1 9! inst20|inst6|inst10~2_combout $end
$var wire 1 :! inst20|inst6|inst10~3_combout $end
$var wire 1 ;! inst20|inst6|inst10~4_combout $end
$var wire 1 <! inst20|inst6|inst10~5_combout $end
$var wire 1 =! inst20|inst6|inst10~6_combout $end
$var wire 1 >! inst21~4_combout $end
$var wire 1 ?! inst16~4_combout $end
$var wire 1 @! inst16~5_combout $end
$var wire 1 A! CONTINUAR~input_o $end
$var wire 1 B! LOAD_I~input_o $end
$var wire 1 C! inst22|inst1~combout $end
$var wire 1 D! inst22|inst~q $end
$var wire 1 E! inst21~5_combout $end
$var wire 1 F! REG_INICIAL|B11|TRI~0_combout $end
$var wire 1 G! inst18|inst|inst44|inst21~0_combout $end
$var wire 1 H! inst18|inst|inst44|inst14~combout $end
$var wire 1 I! inst~combout $end
$var wire 1 J! REG_INICIAL|B11|BIT~q $end
$var wire 1 K! inst30~combout $end
$var wire 1 L! REG_INICIAL|B11|TRI~1_combout $end
$var wire 1 M! REG_INICIAL|B11|TRI~2_combout $end
$var wire 1 N! inst31~0_combout $end
$var wire 1 O! REG_A|B11|BIT~q $end
$var wire 1 P! inst18|inst|inst44|inst18~combout $end
$var wire 1 Q! inst18|inst|inst44|inst12~combout $end
$var wire 1 R! REG_INICIAL|B10|BIT~q $end
$var wire 1 S! REG_INICIAL|B10|TRI~0_combout $end
$var wire 1 T! REG_INICIAL|B10|TRI~1_combout $end
$var wire 1 U! REG_A|B10|BIT~q $end
$var wire 1 V! inst18|inst|inst44|inst10~combout $end
$var wire 1 W! REG_INICIAL|B9|BIT~q $end
$var wire 1 X! REG_INICIAL|B9|TRI~0_combout $end
$var wire 1 Y! REG_INICIAL|B9|TRI~1_combout $end
$var wire 1 Z! REG_A|B9|BIT~q $end
$var wire 1 [! inst18|inst|inst44|inst8~0_combout $end
$var wire 1 \! inst18|inst|inst44|inst8~combout $end
$var wire 1 ]! REG_INICIAL|B8|BIT~q $end
$var wire 1 ^! REG_INICIAL|B8|TRI~0_combout $end
$var wire 1 _! REG_INICIAL|B8|TRI~1_combout $end
$var wire 1 `! REG_A|B8|BIT~q $end
$var wire 1 a! inst18|inst|inst43|inst21~0_combout $end
$var wire 1 b! inst18|inst|inst43|inst14~combout $end
$var wire 1 c! REG_INICIAL|B7|BIT~q $end
$var wire 1 d! REG_INICIAL|B7|TRI~0_combout $end
$var wire 1 e! REG_INICIAL|B7|TRI~1_combout $end
$var wire 1 f! REG_A|B7|BIT~q $end
$var wire 1 g! inst18|inst|inst43|inst18~combout $end
$var wire 1 h! inst18|inst|inst43|inst12~combout $end
$var wire 1 i! REG_INICIAL|B6|BIT~q $end
$var wire 1 j! REG_INICIAL|B6|TRI~0_combout $end
$var wire 1 k! REG_INICIAL|B6|TRI~1_combout $end
$var wire 1 l! REG_A|B6|BIT~q $end
$var wire 1 m! inst18|inst|inst43|inst10~combout $end
$var wire 1 n! REG_INICIAL|B5|BIT~q $end
$var wire 1 o! REG_INICIAL|B5|TRI~0_combout $end
$var wire 1 p! REG_INICIAL|B5|TRI~1_combout $end
$var wire 1 q! REG_A|B5|BIT~q $end
$var wire 1 r! inst18|inst|inst43|inst8~combout $end
$var wire 1 s! REG_INICIAL|B4|BIT~q $end
$var wire 1 t! REG_INICIAL|B4|TRI~0_combout $end
$var wire 1 u! REG_INICIAL|B4|TRI~1_combout $end
$var wire 1 v! REG_A|B4|BIT~q $end
$var wire 1 w! inst18|inst|inst|inst21~1_combout $end
$var wire 1 x! inst18|inst|inst|inst14~combout $end
$var wire 1 y! REG_INICIAL|B3|BIT~q $end
$var wire 1 z! REG_INICIAL|B3|TRI~0_combout $end
$var wire 1 {! REG_INICIAL|B3|TRI~1_combout $end
$var wire 1 |! REG_A|B3|BIT~q $end
$var wire 1 }! inst18|inst|inst|inst12~0_combout $end
$var wire 1 ~! inst18|inst|inst|inst16~0_combout $end
$var wire 1 !" inst18|inst|inst|inst12~combout $end
$var wire 1 "" REG_INICIAL|B2|BIT~q $end
$var wire 1 #" REG_INICIAL|B2|TRI~0_combout $end
$var wire 1 $" REG_INICIAL|B2|TRI~1_combout $end
$var wire 1 %" REG_A|B2|BIT~q $end
$var wire 1 &" inst18|inst|inst|inst10~combout $end
$var wire 1 '" REG_INICIAL|B1|BIT~q $end
$var wire 1 (" REG_INICIAL|B1|TRI~0_combout $end
$var wire 1 )" REG_INICIAL|B1|TRI~1_combout $end
$var wire 1 *" REG_A|B1|BIT~q $end
$var wire 1 +" inst18|inst|inst|inst8~0_combout $end
$var wire 1 ," REG_INICIAL|B0|BIT~q $end
$var wire 1 -" REG_INICIAL|B0|TRI~0_combout $end
$var wire 1 ." REG_INICIAL|B0|TRI~1_combout $end
$var wire 1 /" REG_A|B0|BIT~q $end
$var wire 1 0" inst10|inst4~0_combout $end
$upscope $end
$upscope $end
$enddefinitions $end
#0
$dumpvars
0!
1"
b1101 #
b111 $
0%
0&
1'
0(
1)
x5
x4
x3
x2
x1
x0
x/
x.
x-
x,
x+
x*
x6
x7
x8
x9
0:
1;
x<
1=
1>
1?
x@
xA
xB
xC
xD
xE
xF
xG
xH
xI
xJ
xK
xL
xM
xN
0O
xP
0Q
xR
xS
xT
1U
xV
xW
xX
xY
xZ
1[
x\
x]
1^
x_
1`
xa
xb
xc
xd
xe
xf
xg
xh
xi
xj
xk
xl
xm
xn
xo
xp
xq
xr
xs
1t
0u
xv
0w
xx
0y
0z
x{
x|
x}
x~
x!!
0"!
x#!
x$!
x%!
x&!
x'!
0(!
0)!
0*!
0+!
0,!
0-!
x.!
x/!
00!
x1!
x2!
x3!
04!
x5!
x6!
x7!
x8!
x9!
x:!
x;!
x<!
x=!
x>!
x?!
x@!
1A!
0B!
xC!
0D!
xE!
xF!
xG!
xH!
xI!
0J!
xK!
xL!
xM!
xN!
0O!
xP!
xQ!
0R!
xS!
xT!
0U!
xV!
0W!
xX!
xY!
0Z!
x[!
x\!
0]!
x^!
x_!
0`!
xa!
xb!
0c!
xd!
xe!
0f!
xg!
xh!
0i!
xj!
xk!
0l!
xm!
0n!
xo!
xp!
0q!
xr!
0s!
xt!
xu!
0v!
xw!
xx!
0y!
xz!
x{!
0|!
x}!
x~!
x!"
0""
x#"
x$"
0%"
x&"
0'"
x("
x)"
0*"
x+"
0,"
x-"
x."
0/"
x0"
$end
#378
0P
#401
0.!
#548
0%!
#716
0/!
#785
0E!
#1163
01!
#1606
02!
#1922
03!
#2364
05!
#2809
06!
#3468
00"
#3836
0]
#3839
0!!
#3860
0l
#3910
0v
#3980
1X
#4004
0@!
#4085
0_
#4268
1F!
#4374
0I!
#4578
1K!
#4745
0d
#4860
1M
17
#4936
0X!
#4937
0z!
#4938
0d!
#4939
0S!
0^!
#5000
1!
09
#5134
0L!
#5135
0t!
#5136
0j!
0o!
#5137
0-"
#5258
0_!
#5264
0#"
0("
#5372
0e
#5379
0Y!
#5381
0{!
#5384
0T!
0e!
#5452
0u!
#5454
0p!
0k!
#5457
0."
#5527
1O
#5579
0)"
#5584
0$"
#5638
0M!
#5917
1P
#6343
zC
0-
19
#6433
zB
0,
09
#6650
zE
zA
0/
0+
19
#6728
zG
01
09
#6784
zH
zF
12
00
19
#6787
zI
13
09
#6972
zK
zJ
15
04
19
#7041
0k
#7116
0L
08
#7124
0o
#7189
zD
0.
09
#7321
0R
#7322
1a
#7331
0V
#7339
1Z
#7419
0Y
#7479
1c
#7492
0S
#7580
z@
0*
19
#7653
0\
#7877
0T
#8261
0q
#10000
1&
0!
09
#10537
1B!
#10701
0O
#11013
17!
#11029
1}!
#11079
0P
#11090
1[!
#11181
1g
1~!
#11193
1$!
#11236
0+"
#11237
1b
#11317
1i
#11451
18!
#11466
0p
#11493
0x
#11567
0|
#11605
0f
#11611
1&!
#11684
19!
#11958
1&"
#11986
1:!
#12162
0W
#12171
1!"
#12177
0h
#12282
1g!
#12288
1;!
#12323
0r!
#12349
0m!
#12366
1j
#12489
1}
#12591
1<!
#12786
1{
#12794
1~
#12893
1=!
#12921
0w!
#13018
0h!
#13101
1#!
#13223
1m
1a!
#13367
0x!
#13388
0\!
#13410
1'!
#13803
0b!
#13826
1P!
#13860
0V!
#14134
0>!
#14159
1r
#14197
0n
#14407
0Q!
#14551
1I!
#14758
0K!
#14817
1C!
#14830
1s
#14838
1G!
#14883
1N!
#15000
1!
19
#15162
1z!
#15368
1-"
#15438
1#"
#15527
1O
#15564
1?!
#15580
1{!
#15628
0H!
#15673
1."
#15743
1$"
#15917
1P
#17912
1,"
#17913
1""
#17914
1y!
#17938
1%"
#17939
1|!
#17940
1/"
#18674
1N
16
#20000
0&
0!
09
#20701
0O
#20711
0B!
#21079
0P
#25000
1!
19
#25053
1("
#25085
0I!
#25121
1j!
1o!
#25169
1t!
#25170
1L!
#25289
1K!
#25355
1)"
#25422
1S!
#25423
1^!
#25424
1k!
#25425
1p!
#25435
1d!
#25441
1X!
#25472
1u!
#25527
1O
#25647
0X!
#25649
0d!
#25650
0S!
0^!
#25658
1M!
#25728
1_!
#25840
1T!
#25845
0L!
#25846
0t!
#25847
0j!
0o!
#25917
1P
#25969
0_!
#25975
0("
#26095
0T!
#26163
0u!
#26165
0p!
0k!
#26290
0)"
#26349
0M!
#30000
b101 #
b1 #
0!
03
02
09
#30701
0O
#30708
0a
#30728
0Z
#31079
0P
#34695
0}!
#34850
1x!
#34885
0b
#35000
1!
19
#35021
0i
#35144
0!"
#35527
1O
#35917
1P
#36028
0g!
#36050
1r!
#36080
0j
#36083
1m!
#36774
1h!
#36969
0m
#36971
0a!
#37126
1\!
#37574
1b!
#37633
0P!
#37644
1V!
#37924
0r
#37955
1n
#38239
1Q!
#38599
0s
#38649
0G!
#39379
0?!
#39448
1H!
#39836
0N!
#40000
1%
0!
09
#40507
1u
#40701
0O
#41079
0P
#44162
1v
#45000
1!
19
#45527
1O
#45917
1P
#47557
1,!
#48281
07!
#48917
08!
#49235
09!
#49551
0:!
#49867
0;!
#50000
0%
0!
09
#50185
0<!
#50500
0=!
#50681
0u
#50701
0O
#50827
1>!
#51079
0P
#51498
0C!
#54591
0v
#55000
1!
19
#55240
0N
06
#55527
1O
#55917
1P
#60000
bz00000000001 #
bz0000000001 #
bz000000001 #
bz00000001 #
bz0000001 #
bz000001 #
bz00001 #
bz0001 #
bz00z1 #
bz00zz #
0'
bz0zz #
bz #
0!
z5
z4
z3
z2
z1
z0
z/
z.
z-
z,
z+
z*
09
#60497
zR
#60507
zq
zV
z\
#60515
zT
#60517
zo
zY
#60525
zk
#60535
zS
za
#60555
zZ
#60681
zc
#60691
0t
#60701
0O
#61079
0P
#64086
xQ!
#64107
xg!
#64108
xr!
#64135
xf
#64173
xG!
#64186
xb!
#64242
x}!
#64262
xp
#64265
x[!
#64270
xV!
xP!
#64272
xr
#64274
xn
#64278
xH!
#64289
x:!
#64307
xx
#64330
x{
#64377
x$!
#64380
xx!
#64382
xg
x~!
#64383
x'!
#64415
xm!
#64424
x+"
#64436
x}
#64447
x&"
#64450
xb
#64480
xs
#64485
xW
#64488
x7!
#64533
xi
#64546
xj
#64591
x|
#64614
x#!
#64644
x=!
#64662
x!"
#64664
x8!
#64684
x;!
x\!
#64793
x&!
#64797
xa!
#64820
x~
#64843
xh!
#64900
x9!
#64937
x>!
#64987
x<!
#65000
1!
19
#65002
x.!
#65227
xh
#65289
0F!
0K!
#65304
x/!
#65380
xC!
#65424
x?!
#65448
xm
#65527
1O
#65692
1X!
#65695
1S!
1d!
#65696
1^!
#65705
1Y!
#65706
1T!
1e!
#65724
x1!
#65850
xN!
#65895
1L!
#65896
1t!
#65897
1o!
#65898
1j!
#65917
1P
#65947
xw!
#65962
1_!
#65964
1M!
#65970
1("
#66141
x2!
#66159
1k!
1p!
#66160
1u!
#66238
1)"
#66444
x3!
#66862
x5!
#67281
x6!
#69225
xN
x6
#70000
1(
0!
09
#70517
1Q
#70701
0O
#71079
0P
#75000
1!
19
#75008
x@!
#75527
1O
#75665
xM!
#75667
x_!
#75673
x{!
#75676
xT!
#75678
xY!
xe!
#75686
xu!
#75687
xk!
#75688
x."
#75689
xp!
#75815
x$"
x)"
#75917
1P
#76402
0C
0-
09
#76491
0B
0,
19
#76702
0E
0A
0/
0+
09
#76760
0G
01
19
#76865
0F
00
09
#76987
1H
12
19
#77000
0J
04
09
#77003
1I
13
19
#77100
0k
#77157
1K
15
09
#77182
0o
#77310
0D
0.
19
#77373
0R
#77383
0V
#77451
0Y
#77538
1a
#77542
1Z
#77557
xD!
#77573
0S
#77664
0@
1c
0*
09
#77681
0\
#77998
0T
#78271
xE!
#78345
0q
#78768
xF!
#78769
xK!
#79127
xX!
#79129
xd!
#79130
xS!
x^!
#79325
xL!
#79326
xt!
#79327
xj!
xo!
#79440
x("
#80000
0!
19
#80701
0O
#81079
0P
#81149
1[!
#81245
1}!
#81252
1$!
#81366
1g
1~!
#81385
0/!
#81395
01!
#81421
0+"
#81453
1b
#81520
1i
#81524
0p
#81545
0x
#81625
0|
#81633
0f
#81667
18!
#81670
1&!
#81838
02!
#81887
19!
#81983
07!
#81986
0.!
1&"
#82154
03!
#82189
1:!
#82199
1!"
#82205
0h
#82214
0W
#82438
xM
x7
#82485
1g!
#82491
1;!
#82526
0r!
#82552
0m!
#82569
1j
#82573
1}
#82596
05!
#82714
1$"
#82794
1<!
#82870
1{
#82878
1~
#82949
0w!
#83041
06!
#83096
1=!
#83185
1#!
#83221
0h!
#83395
0x!
#83426
1m
1a!
#83494
1'!
#83591
0\!
#84006
0b!
#84029
1P!
#84063
0V!
#84218
0>!
#84362
1r
#84400
0n
#84555
0E!
#84610
0Q!
#84901
1C!
#85000
1!
09
#85033
1s
#85041
1G!
#85067
0F!
0K!
#85470
1X!
#85473
1S!
1d!
#85474
1^!
#85527
1O
#85673
1L!
#85674
1t!
#85675
1o!
#85676
1j!
#85748
1("
#85767
1?!
#85831
0H!
#85917
1P
#86050
1)"
#86192
1@!
#86193
1N!
#86849
0M!
#86851
0_!
#86857
0{!
#86860
0T!
#86862
0Y!
0e!
#86870
0u!
#86871
0k!
#86872
0."
#86873
0p!
#87557
1D!
#87938
1*"
#87939
0|!
#87940
0/"
#88630
1M
17
#88758
1N
16
#90000
0!
19
#90701
0O
#91079
0P
#91455
1J
14
09
#91745
0H
02
19
#91962
1\
#92122
0K
05
09
#92473
0Z
#92803
0c
#95000
1!
19
#95527
1O
#95590
1f
#95902
0&"
#95917
1P
#95943
17!
#96113
0!"
#96115
1h
#96571
0)"
#96595
1x!
#96662
0$"
#96832
0g
0~!
#96835
1w!
#96855
1+"
#97170
1!"
#97254
0x!
#97378
0h
#97456
1&"
#97493
1{!
#97685
1$"
#97744
1."
#97845
0i
#97938
0*"
x%"
#97939
1|!
#97940
x/"
#98104
1)"
#98122
0w!
#98179
0{!
#98569
1x!
#98852
0g!
#98874
1r!
#98904
0j
#98907
1m!
#99418
1p!
#99467
1{!
#99598
1h!
#99793
0m
#99795
0a!
#99950
1\!
#99995
1u!
#100000
0!
09
#100111
1k!
#100398
1b!
#100457
0P!
#100468
1V!
#100701
0O
#100720
1_!
#100748
0r
#100779
1n
#101063
1Q!
#101079
0P
#101267
1e!
#101394
1Y!
#101412
0J
04
19
#101423
0s
#101473
0G!
#101698
xI
x3
09
#101767
1H
12
19
#102093
0\
#102132
xK
x5
09
#102159
1T!
#102203
0?!
#102272
1H!
#102322
1Z
#102406
xa
#102639
xc
#102658
0@!
#102660
0N!
#103092
1M!
#105000
1!
19
#105527
1O
#105917
1P
#106045
0f
#106112
x}!
#106147
0x!
#106300
1i
#106320
xb
#106341
xg
x~!
#106388
0&"
#106395
07!
#106396
x+"
1.!
#106533
x!"
#106698
x/!
#106929
x&"
#106961
x.!
#107031
x8!
#107265
1g!
#107306
0r!
#107332
0m!
#107349
1j
#108001
0h!
#108206
1m
1a!
#108371
0\!
#108786
0b!
#108809
1P!
#108843
0V!
#109142
1r
#109180
0n
#109390
0Q!
#109813
1s
#109821
1G!
#110000
0!
09
#110547
1?!
#110611
0H!
#110701
0O
#110972
1@!
#110973
1N!
#111079
0P
#111629
0M!
#111631
0_!
#111637
0{!
#111640
0T!
#111642
0Y!
0e!
#111650
0u!
#111651
0k!
#111652
x."
#111653
0p!
#111791
x$"
x)"
#115000
1!
19
#115527
1O
#115917
1P
#117938
x*"
#117939
0|!
#120000
0!
09
#120701
0O
#121079
0P
#121455
xJ
x4
19
#121745
0H
02
09
#121962
x\
#122473
0Z
#125000
1!
19
#125527
1O
#125590
xf
#125917
1P
#125943
x7!
#126115
xh
#126595
1x!
#126606
x1!
#126766
xi
#126835
xw!
#127023
x2!
#127134
x9!
#127254
xx!
#127326
x3!
#127426
x:!
#127493
1{!
#127718
x;!
#127742
xg!
#127744
x5!
#127764
xr!
#127799
xm!
#127814
xj
#127939
1|!
#128011
x<!
#128163
x{!
x6!
#128303
x=!
#128310
xp!
#128470
xh!
#128606
x>!
#128669
xm
#128670
xa!
#128824
x\!
#128885
xu!
#128929
xE!
#128983
xk!
#129083
x?!
#129242
xb!
#129297
xP!
#129307
xV!
#129426
xF!
#129427
xK!
#129506
x@!
#129508
xN!
#129594
x_!
#129618
xr
#129644
xn
#129785
xX!
#129787
xd!
#129788
xS!
x^!
#129870
xQ!
#129983
xL!
#129984
xt!
#129985
xj!
xo!
#130000
0!
09
#130098
x("
#130111
xe!
#130147
xM!
#130169
xT!
#130171
xY!
#130279
xs
#130317
xG!
#130701
0O
#131079
0P
#131108
xH!
#131767
1H
12
19
#132322
1Z
#133096
xM
x7
#135000
1!
09
#135527
1O
#135917
1P
#136175
01!
#136300
1i
#136618
02!
#136667
19!
#136934
03!
#136969
1:!
#137265
1g!
#137271
1;!
#137306
0r!
#137332
0m!
#137349
1j
#137376
05!
#137574
1<!
#137821
06!
#137876
1=!
#138001
0h!
#138169
0>!
#138206
1m
1a!
#138371
0\!
#138506
0E!
#138786
0b!
#138809
1P!
#138843
0V!
#139018
0F!
0K!
#139142
1r
#139180
0n
#139390
0Q!
#139421
1X!
#139424
1S!
1d!
#139425
1^!
#139624
1L!
#139625
1t!
#139626
1o!
#139627
1j!
#139699
1("
#139813
1s
#139821
1G!
#140000
0!
19
#140547
1?!
#140611
0H!
#140701
0O
#140972
1@!
#140973
1N!
#141079
0P
#141629
0M!
#141631
0_!
#141640
0T!
#141642
0Y!
0e!
#141650
0u!
#141651
0k!
#141653
0p!
#142581
1M
17
#145000
1!
09
#145527
1O
#145917
1P
#147939
x|!
#150000
0!
19
#150701
0O
#151079
0P
#151696
xH
x2
09
#152424
xZ
#155000
1!
19
#155527
1O
#155917
1P
#156265
x1!
#156430
xi
#156682
x2!
#156782
x9!
#156985
x3!
#157074
x:!
#157366
x;!
#157403
x5!
#157406
xg!
#157428
xr!
#157463
xm!
#157478
xj
#157659
x<!
#157822
x6!
#157951
x=!
#157974
xp!
#158134
xh!
#158254
x>!
#158333
xm
#158334
xa!
#158488
x\!
#158549
xu!
#158577
xE!
#158647
xk!
#158731
x?!
#158906
xb!
#158961
xP!
#158971
xV!
#159074
xF!
#159075
xK!
#159154
x@!
#159156
xN!
#159258
x_!
#159282
xr
#159308
xn
#159433
xX!
#159435
xd!
#159436
xS!
x^!
#159534
xQ!
#159631
xL!
#159632
xt!
#159633
xj!
xo!
#159746
x("
#159775
xe!
#159795
xM!
#159817
xT!
#159819
xY!
#159943
xs
#159981
xG!
#160000
0!
09
#160701
0O
#160772
xH!
#161079
0P
#162744
xM
x7
#165000
1!
19
#165527
1O
#165917
1P
#170000
0!
09
#170701
0O
#171079
0P
#175000
1!
19
#175527
1O
#175917
1P
#180000
0!
09
#180701
0O
#181079
0P
#185000
1!
19
#185527
1O
#185917
1P
#190000
0!
09
#190701
0O
#191079
0P
#195000
1!
19
#195527
1O
#195917
1P
#200000
0!
09
#200701
0O
#201079
0P
#205000
1!
19
#205527
1O
#205917
1P
#210000
0!
09
#210701
0O
#211079
0P
#215000
1!
19
#215527
1O
#215917
1P
#220000
0!
09
#220701
0O
#221079
0P
#225000
1!
19
#225527
1O
#225917
1P
#230000
0"
0!
09
#230701
0O
#230708
0A!
#231079
0P
#234926
0F!
#234934
0K!
#235000
1!
19
#235337
1X!
#235340
1S!
1d!
#235341
1^!
#235527
1O
#235540
1L!
#235541
1t!
#235542
1o!
#235543
1j!
#235615
1("
#235917
1P
#240000
0!
09
#240701
0O
#241079
0P
#245000
1!
19
#245527
1O
#245917
1P
#250000
0!
09
#250701
0O
#251079
0P
#255000
1!
19
#255527
1O
#255917
1P
#260000
0!
09
#260701
0O
#261079
0P
#265000
1!
19
#265527
1O
#265917
1P
#270000
0!
09
#270701
0O
#271079
0P
#275000
1!
19
#275527
1O
#275917
1P
#280000
0!
09
#280701
0O
#281079
0P
#285000
1!
19
#285527
1O
#285917
1P
#290000
0!
09
#290701
0O
#291079
0P
#295000
1!
19
#295527
1O
#295917
1P
#300000
0!
09
#300701
0O
#301079
0P
#305000
1!
19
#305527
1O
#305917
1P
#310000
0!
09
#310701
0O
#311079
0P
#315000
1!
19
#315527
1O
#315917
1P
#320000
0!
09
#320701
0O
#321079
0P
#325000
1!
19
#325527
1O
#325917
1P
#330000
0!
09
#330701
0O
#331079
0P
#335000
1!
19
#335527
1O
#335917
1P
#340000
0!
09
#340701
0O
#341079
0P
#345000
1!
19
#345527
1O
#345917
1P
#350000
0!
09
#350701
0O
#351079
0P
#355000
1!
19
#355527
1O
#355917
1P
#360000
0!
09
#360701
0O
#361079
0P
#365000
1!
19
#365527
1O
#365917
1P
#370000
0!
09
#370701
0O
#371079
0P
#375000
1!
19
#375527
1O
#375917
1P
#380000
0!
09
#380701
0O
#381079
0P
#385000
1!
19
#385527
1O
#385917
1P
#390000
0!
09
#390701
0O
#391079
0P
#395000
1!
19
#395527
1O
#395917
1P
#400000
0!
09
#400701
0O
#401079
0P
#405000
1!
19
#405527
1O
#405917
1P
#410000
0!
09
#410701
0O
#411079
0P
#415000
1!
19
#415527
1O
#415917
1P
#420000
0!
09
#420701
0O
#421079
0P
#425000
1!
19
#425527
1O
#425917
1P
#430000
0!
09
#430701
0O
#431079
0P
#435000
1!
19
#435527
1O
#435917
1P
#440000
0!
09
#440701
0O
#441079
0P
#445000
1!
19
#445527
1O
#445917
1P
#450000
0!
09
#450701
0O
#451079
0P
#455000
1!
19
#455527
1O
#455917
1P
#460000
0!
09
#460701
0O
#461079
0P
#465000
1!
19
#465527
1O
#465917
1P
#470000
0!
09
#470701
0O
#471079
0P
#475000
1!
19
#475527
1O
#475917
1P
#480000
0!
09
#480701
0O
#481079
0P
#485000
1!
19
#485527
1O
#485917
1P
#490000
0!
09
#490701
0O
#491079
0P
#495000
1!
19
#495527
1O
#495917
1P
#500000
0!
09
#500701
0O
#501079
0P
#505000
1!
19
#505527
1O
#505917
1P
#510000
0!
09
#510701
0O
#511079
0P
#515000
1!
19
#515527
1O
#515917
1P
#520000
0!
09
#520701
0O
#521079
0P
#525000
1!
19
#525527
1O
#525917
1P
#530000
1"
0!
09
#530535
1A!
#530701
0O
#531079
0P
#534463
xF!
#534464
xK!
#534822
xX!
#534824
xd!
#534825
xS!
x^!
#535000
1!
19
#535020
xL!
#535021
xt!
#535022
xj!
xo!
#535135
x("
#535527
1O
#535917
1P
#540000
0!
09
#540701
0O
#541079
0P
#545000
1!
19
#545527
1O
#545917
1P
#550000
0!
09
#550701
0O
#551079
0P
#555000
1!
19
#555527
1O
#555917
1P
#560000
0!
09
#560701
0O
#561079
0P
#565000
1!
19
#565527
1O
#565917
1P
#570000
0!
09
#570701
0O
#571079
0P
#575000
1!
19
#575527
1O
#575917
1P
#580000
0!
09
#580701
0O
#581079
0P
#585000
1!
19
#585527
1O
#585917
1P
#590000
0!
09
#590701
0O
#591079
0P
#595000
1!
19
#595527
1O
#595917
1P
#600000
0!
09
#600701
0O
#601079
0P
#605000
1!
19
#605527
1O
#605917
1P
#610000
0!
09
#610701
0O
#611079
0P
#615000
1!
19
#615527
1O
#615917
1P
#620000
0!
09
#620701
0O
#621079
0P
#625000
1!
19
#625527
1O
#625917
1P
#630000
0!
09
#630701
0O
#631079
0P
#635000
1!
19
#635527
1O
#635917
1P
#640000
0!
09
#640701
0O
#641079
0P
#645000
1!
19
