Trabajo_Practico_2/Quartus/simulation/qsim/TP2.msim.vcd
$comment
	File created using the following command:
		vcd file TP2.msim.vcd -direction
$end
$date
	Fri Jun 13 18:03:38 2025
$end
$version
	ModelSim Version 10.1d
$end
$timescale
	1ps
$end
$scope module Semaforo_vlg_vec_tst $end
$var reg 1 ! CLK $end
$var reg 1 " RST $end
$var reg 1 # VCC $end
$var wire 1 $ A1 $end
$var wire 1 % A2 $end
$var wire 1 & A3 $end
$var wire 1 ' R1 $end
$var wire 1 ( R2 $end
$var wire 1 ) R3 $end
$var wire 1 * V1 $end
$var wire 1 + V2 $end
$var wire 1 , V3 $end
$var wire 1 - sampler $end
$scope module i1 $end
$var wire 1 . gnd $end
$var wire 1 / vcc $end
$var wire 1 0 unknown $end
$var tri1 1 1 devclrn $end
$var tri1 1 2 devpor $end
$var tri1 1 3 devoe $end
$var wire 1 4 V1~output_o $end
$var wire 1 5 A1~output_o $end
$var wire 1 6 R1~output_o $end
$var wire 1 7 V2~output_o $end
$var wire 1 8 A2~output_o $end
$var wire 1 9 R2~output_o $end
$var wire 1 : V3~output_o $end
$var wire 1 ; A3~output_o $end
$var wire 1 < R3~output_o $end
$var wire 1 = CLK~input_o $end
$var wire 1 > CLK~inputclkctrl_outclk $end
$var wire 1 ? VCC~input_o $end
$var wire 1 @ inst|inst9~1_combout $end
$var wire 1 A inst|inst3~1_combout $end
$var wire 1 B inst|inst9~0_combout $end
$var wire 1 C inst|inst3~_emulated_q $end
$var wire 1 D inst|inst3~0_combout $end
$var wire 1 E inst|inst5~1_combout $end
$var wire 1 F inst|inst5~_emulated_q $end
$var wire 1 G inst|inst5~0_combout $end
$var wire 1 H inst|inst15~0_combout $end
$var wire 1 I inst|inst7~1_combout $end
$var wire 1 J inst|inst7~_emulated_q $end
$var wire 1 K inst|inst7~0_combout $end
$var wire 1 L inst|inst6~combout $end
$var wire 1 M inst|inst9~3_combout $end
$var wire 1 N inst|inst9~_emulated_q $end
$var wire 1 O inst|inst9~2_combout $end
$var wire 1 P inst|inst10~combout $end
$var wire 1 Q inst|inst11~1_combout $end
$var wire 1 R inst|inst11~_emulated_q $end
$var wire 1 S inst|inst11~0_combout $end
$var wire 1 T inst|inst8~0_combout $end
$var wire 1 U RST~input_o $end
$var wire 1 V inst|inst21~combout $end
$var wire 1 W inst|inst4~1_combout $end
$var wire 1 X inst|inst4~_emulated_q $end
$var wire 1 Y inst|inst4~0_combout $end
$var wire 1 Z inst|inst2~0_combout $end
$var wire 1 [ inst|inst2~1_combout $end
$var wire 1 \ inst2|inst28~0_combout $end
$var wire 1 ] RST~inputclkctrl_outclk $end
$var wire 1 ^ inst2|D2~q $end
$var wire 1 _ inst2|inst~0_combout $end
$var wire 1 ` inst2|D0~q $end
$var wire 1 a inst2|inst11~0_combout $end
$var wire 1 b inst2|D1~q $end
$var wire 1 c inst3|inst5~0_combout $end
$var wire 1 d inst2|inst12~0_combout $end
$var wire 1 e inst3|inst5~1_combout $end
$var wire 1 f inst3|inst5~2_combout $end
$var wire 1 g inst2|inst3~0_combout $end
$var wire 1 h inst2|inst3~1_combout $end
$var wire 1 i inst3|inst5~3_combout $end
$var wire 1 j inst3|inst5~4_combout $end
$var wire 1 k inst7~0_combout $end
$upscope $end
$upscope $end
$enddefinitions $end
#0
$dumpvars
0!
1"
1#
x$
x%
x&
x'
x(
x)
x*
x+
x,
x-
0.
1/
x0
11
12
13
x4
x5
x6
x7
x8
x9
x:
x;
x<
0=
x>
1?
x@
xA
xB
0C
xD
xE
0F
xG
xH
xI
0J
xK
xL
xM
0N
xO
xP
xQ
0R
xS
xT
1U
xV
xW
0X
xY
xZ
x[
x\
x]
0^
x_
0`
xa
0b
xc
xd
xe
xf
xg
xh
xi
xj
xk
$end
#378
0>
#390
1]
#668
0a
#673
0_
#770
0j
#773
0i
#799
0g
#805
0d
#850
1e
#852
0h
#914
0k
#1107
0f
#1116
1c
#1516
1V
#1840
1B
#2097
0D
0G
#2312
0K
#2319
0@
#2320
0O
0S
#2321
0Y
#2578
0H
#2587
0L
#2693
0[
#2696
0P
#2786
0I
#2929
0Z
#2988
0M
#3028
0\
#3084
0T
#3139
0A
#3141
0E
#3143
1W
#3345
0Q
#3736
1;
1&
#3761
1:
1,
#3973
16
1'
#4000
15
1$
#4054
09
0(
#4101
0<
0)
#4315
17
1+
#4325
04
0*
#4782
18
1%
#10000
1!
0-
#10527
1=
#10917
1>
#20000
0"
0!
1-
#20701
0=
0U
#21079
0>
0]
#22241
0V
#22577
0B
#30000
1!
0-
#30527
1=
#30917
1>
#32916
1X
#33398
1Y
#33898
0W
#33909
1A
#40000
0!
1-
#40701
0=
#41079
0>
#50000
1!
0-
#50527
1=
#50917
1>
#52558
1C
#52904
1D
#52916
0X
#53376
0A
#53387
1H
#53431
0Y
#53500
1E
#53921
0H
#53960
0E
#53972
1A
1W
#60000
0!
1-
#60701
0=
#61079
0>
#70000
1!
0-
#70527
1=
#70917
1>
#72916
1X
#73398
1Y
#73852
1H
#73898
0W
#73899
0A
#73907
1E
#80000
0!
1-
#80701
0=
#81079
0>
#90000
1!
0-
#90527
1=
#90917
1>
#92558
0C
#92916
1F
0X
#92960
0D
#93264
1G
#93431
0Y
#93441
0H
#93467
1A
#93962
0A
#93972
1W
#100000
0!
1-
#100701
0=
#101079
0>
#110000
1!
0-
#110527
1=
#110917
1>
#112916
1X
#113398
1Y
#113898
0W
#113909
1A
#120000
0!
1-
#120701
0=
#121079
0>
#130000
1!
0-
#130527
1=
#130917
1>
#132558
1C
#132904
1D
#132916
0X
#133376
0A
#133387
1H
#133431
0Y
#133472
1L
#133489
0E
#133806
1I
#133921
0H
#133958
0L
#133970
1E
#133972
1A
1W
#134365
0I
#140000
0!
1-
#140701
0=
#141079
0>
#150000
1!
0-
#150527
1=
#150917
1>
#152916
1X
#153398
1Y
#153852
1H
#153897
0E
#153898
0W
#153899
0A
#153905
1L
#154271
1I
#160000
0!
1-
#160701
0=
#161079
0>
#170000
1!
0-
#170527
1=
#170917
1>
#172558
0C
1J
#172916
0F
0X
#172960
0D
#173022
1K
#173320
0G
#173431
0Y
#173441
0H
#173467
1A
#173474
1M
#173480
0I
#173568
0L
#173886
1I
#173962
0A
#173972
1W
#174018
0M
#180000
0!
1-
#180701
0=
#181079
0>
#190000
1!
0-
#190527
1=
#190917
1>
#192916
1X
#193398
1Y
#193898
0W
#193909
1A
#200000
0!
1-
#200701
0=
#201079
0>
#210000
1!
0-
#210527
1=
#210917
1>
#212558
1C
#212904
1D
#212916
0X
#213376
0A
#213387
1H
#213431
0Y
#213500
1E
#213921
0H
#213960
0E
#213972
1A
1W
#220000
0!
1-
#220701
0=
#221079
0>
#230000
1!
0-
#230527
1=
#230917
1>
#232916
1X
#233398
1Y
#233852
1H
#233898
0W
#233899
0A
#233907
1E
#240000
0!
1-
#240701
0=
#241079
0>
#250000
1!
0-
#250527
1=
#250917
1>
#252558
0C
#252916
1F
0X
#252960
0D
#253264
1G
#253431
0Y
#253441
0H
#253467
1A
#253962
0A
#253972
1W
#260000
0!
1-
#260701
0=
#261079
0>
#270000
1!
0-
#270527
1=
#270917
1>
#272916
1X
#273398
1Y
#273898
0W
#273909
1A
#280000
0!
1-
#280701
0=
#281079
0>
#290000
1!
0-
#290527
1=
#290917
1>
#292558
1C
#292904
1D
#292916
0X
#293376
0A
#293387
1H
#293388
1P
#293431
0Y
#293472
1L
#293489
0E
#293805
0I
#293919
1M
#293921
0H
#293958
0L
#293970
1E
#293972
1A
1W
#294020
0P
#294366
1I
#294408
0M
#300000
0!
1-
#300701
0=
#301079
0>
#310000
1!
0-
#310527
1=
#310917
1>
#312916
1X
#313398
1Y
#313852
1H
#313897
0E
#313898
0W
#313899
0A
#313905
1L
#313940
1P
#314270
0I
#314352
1M
#320000
0!
1-
#320701
0=
#321079
0>
#330000
1!
0-
#330527
1=
#330917
1>
#332558
0C
0J
1N
#332904
1O
#332916
0F
0X
#332960
0D
#333089
0K
#333320
0G
#333431
0Y
#333441
0H
#333443
0P
#333467
1A
#333568
0L
#333573
1I
#333595
1Q
#333763
0Q
#333885
0I
#333962
0A
#333972
1W
#340000
0!
1-
#340701
0=
#341079
0>
#350000
1!
0-
#350527
1=
#350917
1>
#352916
1X
#353398
1Y
#353898
0W
#353909
1A
#360000
0!
1-
#360701
0=
#361079
0>
#370000
1!
0-
#370527
1=
#370917
1>
#372558
1C
#372904
1D
#372916
0X
#373376
0A
#373387
1H
#373431
0Y
#373500
1E
#373921
0H
#373960
0E
#373972
1A
1W
#380000
0!
1-
#380701
0=
#381079
0>
#390000
1!
0-
#390527
1=
#390917
1>
#392916
1X
#393398
1Y
#393852
1H
#393898
0W
#393899
0A
#393907
1E
#400000
0!
1-
#400701
0=
#401079
0>
#410000
1!
0-
#410527
1=
#410917
1>
#412558
0C
#412916
1F
0X
#412960
0D
#413264
1G
#413431
0Y
#413441
0H
#413467
1A
#413962
0A
#413972
1W
#420000
0!
1-
#420701
0=
#421079
0>
#430000
1!
0-
#430527
1=
#430917
1>
#432916
1X
#433398
1Y
#433898
0W
#433909
1A
#440000
0!
1-
#440701
0=
#441079
0>
#450000
1!
0-
#450527
1=
#450917
1>
#452558
1C
#452904
1D
#452916
0X
#453376
0A
#453387
1H
#453431
0Y
#453472
1L
#453489
0E
#453806
1I
#453921
0H
#453958
0L
#453970
1E
#453972
1A
1W
#454365
0I
#460000
0!
1-
#460701
0=
#461079
0>
#470000
1!
0-
#470527
1=
#470917
1>
#472916
1X
#473398
1Y
#473852
1H
#473897
0E
#473898
0W
#473899
0A
#473905
1L
#474271
1I
#480000
0!
1-
#480701
0=
#481079
0>
#490000
1!
0-
#490527
1=
#490917
1>
#492558
0C
1J
#492916
0F
0X
#492960
0D
#493022
1K
#493320
0G
#493431
0Y
#493441
0H
#493467
1A
#493475
0M
#493480
0I
#493568
0L
#493886
1I
#493962
0A
#493972
1W
#494028
1M
#500000
0!
1-
#500701
0=
#501079
0>
#510000
1!
0-
#510527
1=
#510917
1>
#512916
1X
#513398
1Y
#513898
0W
#513909
1A
#520000
0!
1-
#520701
0=
#521079
0>
#530000
1!
0-
#530527
1=
#530917
1>
#532558
1C
#532904
1D
#532916
0X
#533376
0A
#533386
1Z
#533387
1H
#533431
0Y
#533500
1E
#533921
0H
#533960
0E
#533972
1A
1W
#540000
0!
1-
#540701
0=
#541079
0>
#550000
1!
0-
#550527
1=
#550917
1>
#552916
1X
#553398
1Y
#553852
1H
#553898
0W
#553899
0A
#553907
1E
#560000
0!
1-
#560701
0=
#561079
0>
#570000
1!
0-
#570527
1=
#570917
1>
#572558
0C
#572916
1F
0X
#572960
0D
#573264
1G
#573431
0Y
#573441
0H
0Z
#573467
1A
#573962
0A
#573972
1W
#580000
0!
1-
#580701
0=
#581079
0>
#590000
1!
0-
#590527
1=
#590917
1>
#592916
1X
#593398
1Y
#593898
0W
#593909
1A
#600000
0!
1-
#600701
0=
#601079
0>
#610000
1!
0-
#610527
1=
#610917
1>
#612558
1C
#612904
1D
#612916
0X
#613376
0A
#613386
1Z
#613387
1H
#613388
1P
#613431
0Y
#613472
1L
#613489
0E
#613693
1Q
#613805
0I
#613909
0M
#613921
0H
#613958
0L
#613970
1E
#613972
1A
1W
#614020
0P
#614040
1[
#614340
0Q
#614356
1\
#614366
1I
#614418
1M
#620000
0!
1-
#620701
0=
#621079
0>
#630000
1!
0-
#630527
1=
#630917
1>
#632916
1X
1^
#633285
0\
#633398
1Y
#633500
1a
#633667
0c
#633682
1d
#633852
1H
#633897
0E
#633898
0W
#633899
0A
#633905
1L
#633940
1P
#633970
0[
#634245
1Q
#634270
0I
#634304
0a
#634315
1\
#634342
0M
#636753
14
1*
#636993
05
0$
#640000
0!
1-
#640701
0=
#641079
0>
#650000
1!
0-
#650527
1=
#650917
1>
#652558
0C
0J
0N
1R
#652904
1S
#652916
0F
0X
#652960
0O
0D
#653089
0K
#653320
0G
#653431
0Y
#653441
0H
#653443
0P
#653467
1A
#653568
0L
#653573
1I
#653885
0I
#653962
0A
#653972
1W
#654112
1T
#660000
0!
1-
#660701
0=
#661079
0>
#670000
1!
0-
#670527
1=
#670917
1>
#672916
1X
#673398
1Y
#673898
0W
#673909
1A
#680000
0!
1-
#680701
0=
#681079
0>
#690000
1!
0-
#690527
1=
#690917
1>
#692558
1C
#692904
1D
#692916
0X
#693376
0A
0Z
#693387
1H
#693431
0Y
#693500
1E
#693921
0H
#693960
0E
#693972
1A
1W
#694061
0T
#700000
0!
1-
#700701
0=
#701079
0>
#710000
1!
0-
#710527
1=
#710917
1>
#712916
1X
#713398
1Y
#713852
1H
#713898
0W
#713899
0A
#713907
1E
#720000
0!
1-
#720701
0=
#721079
0>
#730000
1!
0-
#730527
1=
#730917
1>
#732558
0C
#732916
1F
0X
#732960
0D
#733264
1G
#733431
0Y
#733441
0H
#733451
1Z
#733467
1A
#733962
0A
#733972
1W
#734040
1[
#734112
1T
#734346
0\
#734355
1a
#740000
0!
1-
#740701
0=
#741079
0>
#750000
1!
0-
#750527
1=
#750917
1>
#752916
1X
0^
1b
#753269
1\
#753398
1Y
#753720
0e
#753722
1h
#753732
1f
#753898
0W
#753899
0d
#753909
1A
1V
#753970
0[
#754233
1B
#754305
0\
#754490
0G
#754713
0S
#754714
0Y
#754979
0E
#755078
0V
#755235
0X
0F
#755245
0A
#755255
1W
#755300
0R
#755322
0Z
#755414
0B
#755471
0Q
#755477
0T
#756730
06
0'
#757042
19
1(
#757050
07
0+
#757094
15
1$
#760000
0!
1-
#760701
0=
#761079
0>
#770000
1!
0-
#770527
1=
#770917
1>
#772916
1X
#773398
1Y
#773898
0W
#773909
1A
#780000
0!
1-
#780701
0=
#781079
0>
#790000
1!
0-
#790527
1=
#790917
1>
#792558
1C
#792904
1D
#792916
0X
#793376
0A
#793387
1H
#793431
0Y
#793500
1E
#793921
0H
#793960
0E
#793972
1A
1W
#800000
0!
1-
#800701
0=
#801079
0>
#810000
1!
0-
#810527
1=
#810917
1>
#812916
1X
#813398
1Y
#813852
1H
#813898
0W
#813899
0A
#813907
1E
#820000
0!
1-
#820701
0=
#821079
0>
#830000
1!
0-
#830527
1=
#830917
1>
#832558
0C
#832916
1F
0X
#832960
0D
#833264
1G
#833431
0Y
#833441
0H
#833467
1A
#833962
0A
#833972
1W
#840000
0!
1-
#840701
0=
#841079
0>
#850000
1!
0-
#850527
1=
#850917
1>
#852916
1X
#853398
1Y
#853898
0W
#853909
1A
#860000
0!
1-
#860701
0=
#861079
0>
#870000
1!
0-
#870527
1=
#870917
1>
#872558
1C
#872904
1D
#872916
0X
#873376
0A
#873387
1H
#873431
0Y
#873472
1L
#873489
0E
#873806
1I
#873921
0H
#873958
0L
#873970
1E
#873972
1A
1W
#874365
0I
#880000
0!
1-
#880701
0=
#881079
0>
#890000
1!
0-
#890527
1=
#890917
1>
#892916
1X
#893398
1Y
#893852
1H
#893897
0E
#893898
0W
#893899
0A
#893905
1L
#894271
1I
#900000
0!
1-
#900701
0=
#901079
0>
#910000
1!
0-
#910527
1=
#910917
1>
#912558
0C
1J
#912916
0F
0X
#912960
0D
#913022
1K
#913320
0G
#913431
0Y
#913441
0H
#913467
1A
#913474
1M
#913480
0I
#913568
0L
#913886
1I
#913962
0A
#913972
1W
#914018
0M
#920000
0!
1-
#920701
0=
#921079
0>
#930000
1!
0-
#930527
1=
#930917
1>
#932916
1X
#933398
1Y
#933898
0W
#933909
1A
#940000
0!
1-
#940701
0=
#941079
0>
#950000
1!
0-
#950527
1=
#950917
1>
#952558
1C
#952904
1D
#952916
0X
#953376
0A
#953387
1H
#953431
0Y
#953500
1E
#953921
0H
#953960
0E
#953972
1A
1W
#960000
0!
1-
#960701
0=
#961079
0>
#970000
1!
0-
#970527
1=
#970917
1>
#972916
1X
#973398
1Y
#973852
1H
#973898
0W
#973899
0A
#973907
1E
#980000
0!
1-
#980701
0=
#981079
0>
#990000
1!
0-
#990527
1=
#990917
1>
#992558
0C
#992916
1F
0X
#992960
0D
#993264
1G
#993431
0Y
#993441
0H
#993467
1A
#993962
0A
#993972
1W
